{
    "type": "service_account",
    "project_id": "regal-wall-258120",
    "private_key_id": "473ca748645b93a5756480e91a1ee78a8ec3dc42",
    "private_key": "-----BEGIN PRIVATE KEY-----\nMIIEvAIBADANBgkqhkiG9w0BAQEFAASCBKYwggSiAgEAAoIBAQC9OPKc0mVb8TEr\naw/uIVfdZaFbbAxA/3bS8sBT4EEEiB+RdGZOus4mrMHgZ5jJB6tSewo3s9JAQhrN\nWmGHRqyQ+JezFG4B7ZsmTxBU8v5XNI1mNIssHDUoK4JqGhon5OiPNuqBjjaHasUW\nlwDg+l9zHIMElx4/OkGX2/Y2itw++shv7Yd/S0EtX70soHMyLXR9AkvbDZpPmlfn\nA+7BMdNj1eqGuRjkB7CBKHhJMWwcyDmEs9C+0u7OvwXmJMPfHUsSXmh38aesfJK1\n6n2IJwnKKs1FJxYZzne+yFSugAoXhMWZJTASM5elLkryqwd+NKOn60kCgSow+/2t\nPxqB6GvRAgMBAAECggEAFEayC68pbJXes5T6POWOh2M8rEHamcvuIQphZNOA0BIg\nlNrs3BadIMyODWR4fSEw4OqdlIy0tM1IlzTuQrtGYlX7FnXT2GnMQGmEOeAcdD6F\nwNwURjajFRH9fG5d22TGbVNAg3+4VOAybJpjfhgiKoD1gqRJWdPdo77OpjdQxMA2\nUVWGPl+oXhQVGo8k7DLU0chBjw13oD1qD2HH4pElkQwwaxz/B2Gg+uC/dyGt54KL\nBpxHtjottAXc1H8eTxtzSlI+JjAqORNEP1mk5SWZG9bbBu8jx68riTgtn2PLf/dq\nxRlGhWHumTYaCT362G7OnGsNaTZn6sfMnxlC1RcIqQKBgQDjEhiKxOdD4KOWtXsy\nfFpG68td/5QyxbSWCaQegQpvQqlOq9d3g5/AJ5YbXqIHf1cQEtM+cZ0rsemI5ykx\naV+0TSUMMMxFbEfjYUg5u0Ly1F9jJAXMJxC8O3kzsggXh2GNKk5ZfBiZ5rl+sMZI\nuVV9KpQ/0ETPrfm5vYIXj/XmaQKBgQDVVG7F5X76px5zKvGimArL4rsvHcJ1x6hU\nxWXtjkSq6S0/e/WUOKb0N+FawZcR28HAGhvL/mRnC9gayA7gd4txDvDv9WMqsiRV\nMd7Dq0NFFK5jgdAFeygrQaFPZfWMQW2b7GNpomov9UjGk4o39Smfm4ysrSsltNsX\nJwLFxbO9KQKBgD0Nf4XIPXo1qyZ5cz92yfspqQuEDX+9QrnYq8T74ydZIBakA5IB\n1PEgc662OhCT/3+14BB5Ec5OzsDdjmjXsUDUQTLO6A1+eLG9VWMYY37Q9Ti91cU3\nd7t0rjjlFGHnJ6aCCoDq6d5vd86Fjzq8gizeRvAFeorwdyWmu5TEQ1SJAoGAbBHJ\nzBbmrLPciRtILcY4MfE6QjQhPulWLRuS9zULNEnL0k1JqzzH1xA36XIIxdM948NW\nMZE967XkVCzk3HGzAiM/i1AUXJzCKyaIYzdvbJ99eItahmxNfRxSS5arPdInZMXr\n1qegg4sOwwobCx33aBO0wAU5xnBITQJGNUpiM4ECgYAjXHbtMAso6hjGxxH1Ci3y\n53tbQK7agcvgRSjh+SSnklvNYQ+XhdZPYE4kANDWkA8Rc923lpB/OPDYLJ7pzPoG\nk1LSISuSSpMl5nf39IDj4/vPieLRtxCWDBenvvwKBKfz0HzkD6mB7JW+36Rp/LC3\n05q/4vuXsjRTxFL8Lg0MKA==\n-----END PRIVATE KEY-----\n",
    "client_email": "administrador@regal-wall-258120.iam.gserviceaccount.com",
    "client_id": "115981656717186792119",
    "auth_uri": "https://accounts.google.com/o/oauth2/auth",
    "token_uri": "https://oauth2.googleapis.com/token",
    "auth_provider_x509_cert_url": "https://www.googleapis.com/oauth2/v1/certs",
    "client_x509_cert_url": "https://www.googleapis.com/robot/v1/metadata/x509/administrador%40regal-wall-258120.iam.gserviceaccount.com"
  }
  